 @foreach ($students as $student)
        tr

                @foreach ($persons as $person)
                    @if ($person-ssn == $student-ssn)
                    td  {{ $person-name }}td
                    td  {{ $person-family }}td
                    td  {{ $person-ssn }}td
                    @endif
                @endforeach

            td{{ $student-student_number }}td
            td{{ $student-field }}td

        tr
    @endforeach